%YAML 1.1
%TAG !u! tag:unity3d.com,2011:
--- !u!74 &7400000
AnimationClip:
  m_ObjectHideFlags: 0
  m_PrefabParentObject: {fileID: 0}
  m_PrefabInternal: {fileID: 0}
  m_Name: Idle
  serializedVersion: 4
  m_AnimationType: 2
  m_Compressed: 0
  m_UseHighQualityCurve: 1
  m_RotationCurves:
  - curve:
      serializedVersion: 2
      m_Curve:
      - time: 0
        value: {x: 0, y: 0, z: 0, w: 1}
        inSlope: {x: 0, y: 0, z: 0, w: 0}
        outSlope: {x: 0, y: 0, z: 0, w: 0}
        tangentMode: 1634087779
      - time: .00555555569
        value: {x: 0, y: 0, z: 0, w: 1}
        inSlope: {x: 0, y: 0, z: 0, w: 0}
        outSlope: {x: 0, y: 0, z: 0, w: 0}
        tangentMode: 1701994832
      - time: .0111111114
        value: {x: 0, y: 0, z: 0, w: 1}
        inSlope: {x: 0, y: 0, z: 0, w: 0}
        outSlope: {x: 0, y: 0, z: 0, w: 0}
        tangentMode: 15
      - time: .0166666675
        value: {x: 0, y: 0, z: 0, w: 1}
        inSlope: {x: 0, y: 0, z: 0, w: 0}
        outSlope: {x: 0, y: 0, z: 0, w: 0}
        tangentMode: 3
      - time: .0222222228
        value: {x: 0, y: 0, z: 0, w: 1}
        inSlope: {x: 0, y: 0, z: 0, w: 0}
        outSlope: {x: 0, y: 0, z: 0, w: 0}
        tangentMode: 0
      - time: .027777778
        value: {x: 0, y: 0, z: 0, w: 1}
        inSlope: {x: 0, y: 0, z: 0, w: 0}
        outSlope: {x: 0, y: 0, z: 0, w: 0}
        tangentMode: 0
      - time: .0333333351
        value: {x: 0, y: 0, z: 0, w: 1}
        inSlope: {x: 0, y: 0, z: 0, w: 0}
        outSlope: {x: 0, y: 0, z: 0, w: 0}
        tangentMode: 1528838771
      - time: .0388888903
        value: {x: 0, y: 0, z: 0, w: 1}
        inSlope: {x: 0, y: 0, z: 0, w: 0}
        outSlope: {x: 0, y: 0, z: 0, w: 0}
        tangentMode: 170926138
      - time: .0444444455
        value: {x: 0, y: 0, z: 0, w: 1}
        inSlope: {x: 0, y: 0, z: 0, w: 0}
        outSlope: {x: 0, y: 0, z: 0, w: 0}
        tangentMode: 15
      - time: .0500000007
        value: {x: 0, y: 0, z: 0, w: 1}
        inSlope: {x: 0, y: 0, z: 0, w: 0}
        outSlope: {x: 0, y: 0, z: 0, w: 0}
        tangentMode: 3
      - time: .055555556
        value: {x: 0, y: 0, z: 0, w: 1}
        inSlope: {x: 0, y: 0, z: 0, w: 0}
        outSlope: {x: 0, y: 0, z: 0, w: 0}
        tangentMode: 0
      - time: .0611111112
        value: {x: 0, y: 0, z: 0, w: 1}
        inSlope: {x: 0, y: 0, z: 0, w: 0}
        outSlope: {x: 0, y: 0, z: 0, w: 0}
        tangentMode: 0
      - time: .0666666701
        value: {x: 0, y: 0, z: 0, w: 1}
        inSlope: {x: 0, y: 0, z: 0, w: 0}
        outSlope: {x: 0, y: 0, z: 0, w: 0}
        tangentMode: 1818588773
      - time: .0722222254
        value: {x: 0, y: 0, z: 0, w: 1}
        inSlope: {x: 0, y: 0, z: 0, w: 0}
        outSlope: {x: 0, y: 0, z: 0, w: 0}
        tangentMode: 1701593712
      - time: .0777777806
        value: {x: 0, y: 0, z: 0, w: 1}
        inSlope: {x: 0, y: 0, z: 0, w: 0}
        outSlope: {x: 0, y: 0, z: 0, w: 0}
        tangentMode: 15
      - time: .0833333358
        value: {x: 0, y: 0, z: 0, w: 1}
        inSlope: {x: 0, y: 0, z: 0, w: 0}
        outSlope: {x: 0, y: 0, z: 0, w: 0}
        tangentMode: 3
      - time: .088888891
        value: {x: 0, y: 0, z: 0, w: 1}
        inSlope: {x: 0, y: 0, z: 0, w: 0}
        outSlope: {x: 0, y: 0, z: 0, w: 0}
        tangentMode: 1135414831
      - time: .0944444463
        value: {x: 0, y: 0, z: 0, w: 1}
        inSlope: {x: 0, y: 0, z: 0, w: 0}
        outSlope: {x: 0, y: 0, z: 0, w: 0}
        tangentMode: 1913850065
      - time: .100000001
        value: {x: 0, y: 0, z: 0, w: 1}
        inSlope: {x: 0, y: 0, z: 0, w: 0}
        outSlope: {x: 0, y: 0, z: 0, w: 0}
        tangentMode: 1600987168
      - time: .105555557
        value: {x: 0, y: 0, z: 0, w: 1}
        inSlope: {x: 0, y: 0, z: 0, w: 0}
        outSlope: {x: 0, y: 0, z: 0, w: 0}
        tangentMode: 106862304
      - time: .111111112
        value: {x: 0, y: 0, z: 0, w: 1}
        inSlope: {x: 0, y: 0, z: 0, w: 0}
        outSlope: {x: 0, y: 0, z: 0, w: 0}
        tangentMode: 15
      - time: .116666667
        value: {x: 0, y: 0, z: 0, w: 1}
        inSlope: {x: 0, y: 0, z: 0, w: 0}
        outSlope: {x: 0, y: 0, z: 0, w: 0}
        tangentMode: 3
      - time: .122222222
        value: {x: 0, y: 0, z: 0, w: 1}
        inSlope: {x: 0, y: 0, z: 0, w: 0}
        outSlope: {x: 0, y: 0, z: 0, w: 0}
        tangentMode: 1161096374
      - time: .127777785
        value: {x: 0, y: 0, z: 0, w: 1}
        inSlope: {x: 0, y: 0, z: 0, w: 0}
        outSlope: {x: 0, y: 0, z: 0, w: 0}
        tangentMode: 1728178886
      - time: .13333334
        value: {x: 0, y: 0, z: 0, w: 1}
        inSlope: {x: 0, y: 0, z: 0, w: 0}
        outSlope: {x: 0, y: 0, z: 0, w: 0}
        tangentMode: 0
      - time: .138888896
        value: {x: 0, y: 0, z: 0, w: 1}
        inSlope: {x: 0, y: 0, z: 0, w: 0}
        outSlope: {x: 0, y: 0, z: 0, w: 0}
        tangentMode: 0
      - time: .144444451
        value: {x: 0, y: 0, z: 0, w: 1}
        inSlope: {x: 0, y: 0, z: 0, w: 0}
        outSlope: {x: 0, y: 0, z: 0, w: 0}
        tangentMode: 15
      - time: .150000006
        value: {x: 0, y: 0, z: 0, w: 1}
        inSlope: {x: 0, y: 0, z: 0, w: 0}
        outSlope: {x: 0, y: 0, z: 0, w: 0}
        tangentMode: 3
      - time: .155555561
        value: {x: 0, y: 0, z: 0, w: 1}
        inSlope: {x: 0, y: 0, z: 0, w: 0}
        outSlope: {x: 0, y: 0, z: 0, w: 0}
        tangentMode: 1310959756
      - time: .161111116
        value: {x: 0, y: 0, z: 0, w: 1}
        inSlope: {x: 0, y: 0, z: 0, w: 0}
        outSlope: {x: 0, y: 0, z: 0, w: 0}
        tangentMode: 0
      - time: .166666672
        value: {x: 0, y: 0, z: 0, w: 1}
        inSlope: {x: 0, y: 0, z: 0, w: 0}
        outSlope: {x: 0, y: 0, z: 0, w: 0}
        tangentMode: 175660072
      - time: .172222227
        value: {x: 0, y: 0, z: 0, w: 1}
        inSlope: {x: 0, y: 0, z: 0, w: 0}
        outSlope: {x: 0, y: 0, z: 0, w: 0}
        tangentMode: 0
      - time: .177777782
        value: {x: 0, y: 0, z: 0, w: 1}
        inSlope: {x: 0, y: 0, z: 0, w: 0}
        outSlope: {x: 0, y: 0, z: 0, w: 0}
        tangentMode: 15
      - time: .183333337
        value: {x: 0, y: 0, z: 0, w: 1}
        inSlope: {x: 0, y: 0, z: 0, w: 0}
        outSlope: {x: 0, y: 0, z: 0, w: 0}
        tangentMode: 0
      - time: .188888893
        value: {x: 0, y: 0, z: 0, w: 1}
        inSlope: {x: 0, y: 0, z: 0, w: 0}
        outSlope: {x: 0, y: 0, z: 0, w: 0}
        tangentMode: 0
      - time: .194444448
        value: {x: 0, y: 0, z: 0, w: 1}
        inSlope: {x: 0, y: 0, z: 0, w: 0}
        outSlope: {x: 0, y: 0, z: 0, w: 0}
        tangentMode: 0
      - time: .200000003
        value: {x: 0, y: 0, z: 0, w: 1}
        inSlope: {x: 0, y: 0, z: 0, w: 0}
        outSlope: {x: 0, y: 0, z: 0, w: 0}
        tangentMode: 0
      - time: .205555558
        value: {x: 0, y: 0, z: 0, w: 1}
        inSlope: {x: 0, y: 0, z: 0, w: 0}
        outSlope: {x: 0, y: 0, z: 0, w: 0}
        tangentMode: 0
      - time: .211111113
        value: {x: 0, y: 0, z: 0, w: 1}
        inSlope: {x: 0, y: 0, z: 0, w: 0}
        outSlope: {x: 0, y: 0, z: 0, w: 0}
        tangentMode: 15
      - time: .216666669
        value: {x: 0, y: 0, z: 0, w: 1}
        inSlope: {x: 0, y: 0, z: 0, w: 0}
        outSlope: {x: 0, y: 0, z: 0, w: 0}
        tangentMode: 0
      - time: .222222224
        value: {x: 0, y: 0, z: 0, w: 1}
        inSlope: {x: 0, y: 0, z: 0, w: 0}
        outSlope: {x: 0, y: 0, z: 0, w: 0}
        tangentMode: 0
      - time: .227777779
        value: {x: 0, y: 0, z: 0, w: 1}
        inSlope: {x: 0, y: 0, z: 0, w: 0}
        outSlope: {x: 0, y: 0, z: 0, w: 0}
        tangentMode: 0
      - time: .233333334
        value: {x: 0, y: 0, z: 0, w: 1}
        inSlope: {x: 0, y: 0, z: 0, w: 0}
        outSlope: {x: 0, y: 0, z: 0, w: 0}
        tangentMode: 99651844
      - time: .23888889
        value: {x: 0, y: 0, z: 0, w: 1}
        inSlope: {x: 0, y: 0, z: 0, w: 0}
        outSlope: {x: 0, y: 0, z: 0, w: 0}
        tangentMode: 105974688
      - time: .244444445
        value: {x: 0, y: 0, z: 0, w: 1}
        inSlope: {x: 0, y: 0, z: 0, w: 0}
        outSlope: {x: 0, y: 0, z: 0, w: 0}
        tangentMode: 15
      - time: .25
        value: {x: 0, y: 0, z: 0, w: 1}
        inSlope: {x: 0, y: 0, z: 0, w: 0}
        outSlope: {x: 0, y: 0, z: 0, w: 0}
        tangentMode: 0
      - time: .25555557
        value: {x: 0, y: 0, z: 0, w: 1}
        inSlope: {x: 0, y: 0, z: 0, w: 0}
        outSlope: {x: 0, y: 0, z: 0, w: 0}
        tangentMode: 0
      - time: .26111114
        value: {x: 0, y: 0, z: 0, w: 1}
        inSlope: {x: 0, y: 0, z: 0, w: 0}
        outSlope: {x: 0, y: 0, z: 0, w: 0}
        tangentMode: 0
      - time: .26666671
        value: {x: 0, y: 0, z: 0, w: 1}
        inSlope: {x: 0, y: 0, z: 0, w: 0}
        outSlope: {x: 0, y: 0, z: 0, w: 0}
        tangentMode: 175810040
      - time: .272222281
        value: {x: 0, y: 0, z: 0, w: 1}
        inSlope: {x: 0, y: 0, z: 0, w: 0}
        outSlope: {x: 0, y: 0, z: 0, w: 0}
        tangentMode: 0
      - time: .277777851
        value: {x: 0, y: 0, z: 0, w: 1}
        inSlope: {x: 0, y: 0, z: 0, w: 0}
        outSlope: {x: 0, y: 0, z: 0, w: 0}
        tangentMode: 15
      - time: .283333421
        value: {x: 0, y: 0, z: 0, w: 1}
        inSlope: {x: 0, y: 0, z: 0, w: 0}
        outSlope: {x: 0, y: 0, z: 0, w: 0}
        tangentMode: 2
      - time: .288888991
        value: {x: 0, y: 0, z: 0, w: 1}
        inSlope: {x: 0, y: 0, z: 0, w: 0}
        outSlope: {x: 0, y: 0, z: 0, w: 0}
        tangentMode: 0
      - time: .294444561
        value: {x: 0, y: 0, z: 0, w: 1}
        inSlope: {x: 0, y: 0, z: 0, w: 0}
        outSlope: {x: 0, y: 0, z: 0, w: 0}
        tangentMode: 0
      - time: .300000131
        value: {x: 0, y: 0, z: 0, w: 1}
        inSlope: {x: 0, y: 0, z: 0, w: 0}
        outSlope: {x: 0, y: 0, z: 0, w: 0}
        tangentMode: 0
      - time: .305555701
        value: {x: 0, y: 0, z: 0, w: 1}
        inSlope: {x: 0, y: 0, z: 0, w: 0}
        outSlope: {x: 0, y: 0, z: 0, w: 0}
        tangentMode: 0
      - time: .311111271
        value: {x: 0, y: 0, z: 0, w: 1}
        inSlope: {x: 0, y: 0, z: 0, w: 0}
        outSlope: {x: 0, y: 0, z: 0, w: 0}
        tangentMode: 15
      - time: .316666842
        value: {x: 0, y: 0, z: 0, w: 1}
        inSlope: {x: 0, y: 0, z: 0, w: 0}
        outSlope: {x: 0, y: 0, z: 0, w: 0}
        tangentMode: 3
      - time: .322222412
        value: {x: 0, y: 0, z: 0, w: 1}
        inSlope: {x: 0, y: 0, z: 0, w: 0}
        outSlope: {x: 0, y: 0, z: 0, w: 0}
        tangentMode: 1277630564
      - time: .327777982
        value: {x: 0, y: 0, z: 0, w: 1}
        inSlope: {x: 0, y: 0, z: 0, w: 0}
        outSlope: {x: 0, y: 0, z: 0, w: 0}
        tangentMode: -410050645
      - time: .333333552
        value: {x: 0, y: 0, z: 0, w: 1}
        inSlope: {x: 0, y: 0, z: 0, w: 0}
        outSlope: {x: 0, y: 0, z: 0, w: 0}
        tangentMode: 0
      - time: .338889122
        value: {x: 0, y: 0, z: 0, w: 1}
        inSlope: {x: 0, y: 0, z: 0, w: 0}
        outSlope: {x: 0, y: 0, z: 0, w: 0}
        tangentMode: 0
      - time: .344444692
        value: {x: 0, y: 0, z: 0, w: 1}
        inSlope: {x: 0, y: 0, z: 0, w: 0}
        outSlope: {x: 0, y: 0, z: 0, w: 0}
        tangentMode: 15
      - time: .350000262
        value: {x: 0, y: 0, z: 0, w: 1}
        inSlope: {x: 0, y: 0, z: 0, w: 0}
        outSlope: {x: 0, y: 0, z: 0, w: 0}
        tangentMode: 3
      - time: .355555832
        value: {x: 0, y: 0, z: 0, w: 1}
        inSlope: {x: 0, y: 0, z: 0, w: 0}
        outSlope: {x: 0, y: 0, z: 0, w: 0}
        tangentMode: 1233586061
      - time: .361111403
        value: {x: 0, y: 0, z: 0, w: 1}
        inSlope: {x: 0, y: 0, z: 0, w: 0}
        outSlope: {x: 0, y: 0, z: 0, w: 0}
        tangentMode: 117168008
      - time: .366666973
        value: {x: 0, y: 0, z: 0, w: 1}
        inSlope: {x: 0, y: 0, z: 0, w: 0}
        outSlope: {x: 0, y: 0, z: 0, w: 0}
        tangentMode: 99564172
      - time: .372222543
        value: {x: 0, y: 0, z: 0, w: 1}
        inSlope: {x: 0, y: 0, z: 0, w: 0}
        outSlope: {x: 0, y: 0, z: 0, w: 0}
        tangentMode: 0
      - time: .377778113
        value: {x: 0, y: 0, z: 0, w: 1}
        inSlope: {x: 0, y: 0, z: 0, w: 0}
        outSlope: {x: 0, y: 0, z: 0, w: 0}
        tangentMode: 15
      - time: .383333683
        value: {x: 0, y: 0, z: 0, w: 1}
        inSlope: {x: 0, y: 0, z: 0, w: 0}
        outSlope: {x: 0, y: 0, z: 0, w: 0}
        tangentMode: 3
      - time: .388889253
        value: {x: 0, y: 0, z: 0, w: 1}
        inSlope: {x: 0, y: 0, z: 0, w: 0}
        outSlope: {x: 0, y: 0, z: 0, w: 0}
        tangentMode: 1198018587
      - time: .394444823
        value: {x: 0, y: 0, z: 0, w: 1}
        inSlope: {x: 0, y: 0, z: 0, w: 0}
        outSlope: {x: 0, y: 0, z: 0, w: 0}
        tangentMode: 1728178886
      - time: .400000393
        value: {x: 0, y: 0, z: 0, w: 1}
        inSlope: {x: 0, y: 0, z: 0, w: 0}
        outSlope: {x: 0, y: 0, z: 0, w: 0}
        tangentMode: 99534176
      - time: .405555964
        value: {x: 0, y: 0, z: 0, w: 1}
        inSlope: {x: 0, y: 0, z: 0, w: 0}
        outSlope: {x: 0, y: 0, z: 0, w: 0}
        tangentMode: 103703544
      - time: .411111534
        value: {x: 0, y: 0, z: 0, w: 1}
        inSlope: {x: 0, y: 0, z: 0, w: 0}
        outSlope: {x: 0, y: 0, z: 0, w: 0}
        tangentMode: 15
      - time: .416667104
        value: {x: 0, y: 0, z: 0, w: 1}
        inSlope: {x: 0, y: 0, z: 0, w: 0}
        outSlope: {x: 0, y: 0, z: 0, w: 0}
        tangentMode: 3
      - time: .422222674
        value: {x: 0, y: 0, z: 0, w: 1}
        inSlope: {x: 0, y: 0, z: 0, w: 0}
        outSlope: {x: 0, y: 0, z: 0, w: 0}
        tangentMode: 1277472841
      - time: .427778244
        value: {x: 0, y: 0, z: 0, w: 1}
        inSlope: {x: 0, y: 0, z: 0, w: 0}
        outSlope: {x: 0, y: 0, z: 0, w: 0}
        tangentMode: -1641217666
      - time: .433333814
        value: {x: 0, y: 0, z: 0, w: 1}
        inSlope: {x: 0, y: 0, z: 0, w: 0}
        outSlope: {x: 0, y: 0, z: 0, w: 0}
        tangentMode: 0
      - time: .438889384
        value: {x: 0, y: 0, z: 0, w: 1}
        inSlope: {x: 0, y: 0, z: 0, w: 0}
        outSlope: {x: 0, y: 0, z: 0, w: 0}
        tangentMode: 0
      - time: .444444954
        value: {x: 0, y: 0, z: 0, w: 1}
        inSlope: {x: 0, y: 0, z: 0, w: 0}
        outSlope: {x: 0, y: 0, z: 0, w: 0}
        tangentMode: 15
      - time: .450000525
        value: {x: 0, y: 0, z: 0, w: 1}
        inSlope: {x: 0, y: 0, z: 0, w: 0}
        outSlope: {x: 0, y: 0, z: 0, w: 0}
        tangentMode: 3
      - time: .455556095
        value: {x: 0, y: 0, z: 0, w: 1}
        inSlope: {x: 0, y: 0, z: 0, w: 0}
        outSlope: {x: 0, y: 0, z: 0, w: 0}
        tangentMode: 1073851864
      - time: .461111665
        value: {x: 0, y: 0, z: 0, w: 1}
        inSlope: {x: 0, y: 0, z: 0, w: 0}
        outSlope: {x: 0, y: 0, z: 0, w: 0}
        tangentMode: -923967561
      - time: .466667235
        value: {x: 0, y: 0, z: 0, w: 1}
        inSlope: {x: 0, y: 0, z: 0, w: 0}
        outSlope: {x: 0, y: 0, z: 0, w: 0}
        tangentMode: 105307708
      - time: .472222805
        value: {x: 0, y: 0, z: 0, w: 1}
        inSlope: {x: 0, y: 0, z: 0, w: 0}
        outSlope: {x: 0, y: 0, z: 0, w: 0}
        tangentMode: 0
      - time: .477778375
        value: {x: 0, y: 0, z: 0, w: 1}
        inSlope: {x: 0, y: 0, z: 0, w: 0}
        outSlope: {x: 0, y: 0, z: 0, w: 0}
        tangentMode: 15
      - time: .483333945
        value: {x: 0, y: 0, z: 0, w: 1}
        inSlope: {x: 0, y: 0, z: 0, w: 0}
        outSlope: {x: 0, y: 0, z: 0, w: 0}
        tangentMode: 3
      - time: .488889515
        value: {x: 0, y: 0, z: 0, w: 1}
        inSlope: {x: 0, y: 0, z: 0, w: 0}
        outSlope: {x: 0, y: 0, z: 0, w: 0}
        tangentMode: 1159746870
      - time: .494445086
        value: {x: 0, y: 0, z: 0, w: 1}
        inSlope: {x: 0, y: 0, z: 0, w: 0}
        outSlope: {x: 0, y: 0, z: 0, w: 0}
        tangentMode: -279210890
      - time: .5
        value: {x: 0, y: 0, z: 0, w: 1}
        inSlope: {x: 0, y: 0, z: 0, w: 0}
        outSlope: {x: 0, y: 0, z: 0, w: 0}
        tangentMode: 0
      m_PreInfinity: 2
      m_PostInfinity: 2
    path: 
  m_CompressedRotationCurves: []
  m_PositionCurves:
  - curve:
      serializedVersion: 2
      m_Curve:
      - time: 0
        value: {x: 0, y: .829999983, z: 0}
        inSlope: {x: 0, y: 0, z: 0}
        outSlope: {x: 0, y: 0, z: 0}
        tangentMode: 1
      - time: .5
        value: {x: 0, y: .829999983, z: 0}
        inSlope: {x: 0, y: 0, z: 0}
        outSlope: {x: 0, y: 0, z: 0}
        tangentMode: 0
      m_PreInfinity: 2
      m_PostInfinity: 2
    path: 
  m_ScaleCurves:
  - curve:
      serializedVersion: 2
      m_Curve:
      - time: 0
        value: {x: 1, y: 1, z: 1}
        inSlope: {x: 0, y: 0, z: 0}
        outSlope: {x: 0, y: 0, z: 0}
        tangentMode: 1
      - time: .5
        value: {x: 1, y: 1, z: 1}
        inSlope: {x: 0, y: 0, z: 0}
        outSlope: {x: 0, y: 0, z: 0}
        tangentMode: 0
      m_PreInfinity: 2
      m_PostInfinity: 2
    path: 
  m_FloatCurves: []
  m_PPtrCurves:
  - curve:
    - time: 0
      value: {fileID: 21300000, guid: 0a96721380f41eb4190b6295f1c5c3f6, type: 3}
    - time: .166666672
      value: {fileID: 21300000, guid: d994cdf30c161b7499ef054813b4e4e9, type: 3}
    - time: .333333343
      value: {fileID: 21300000, guid: d8a7ea821800310409a791109cff942e, type: 3}
    - time: .5
      value: {fileID: 21300000, guid: d994cdf30c161b7499ef054813b4e4e9, type: 3}
    - time: .666666687
      value: {fileID: 21300000, guid: 0a96721380f41eb4190b6295f1c5c3f6, type: 3}
    attribute: m_Sprite
    path: 
    classID: 212
    script: {fileID: 0}
  m_SampleRate: 180
  m_WrapMode: 0
  m_Bounds:
    m_Center: {x: 0, y: 0, z: 0}
    m_Extent: {x: 0, y: 0, z: 0}
  m_ClipBindingConstant:
    genericBindings:
    - path: 0
      attribute: 0
      script: {fileID: 0}
      classID: 212
      customType: 23
      isPPtrCurve: 1
    - path: 0
      attribute: 1
      script: {fileID: 0}
      classID: 4
      customType: 0
      isPPtrCurve: 0
    - path: 0
      attribute: 2
      script: {fileID: 0}
      classID: 4
      customType: 0
      isPPtrCurve: 0
    - path: 0
      attribute: 3
      script: {fileID: 0}
      classID: 4
      customType: 0
      isPPtrCurve: 0
    pptrCurveMapping:
    - {fileID: 21300000, guid: 0a96721380f41eb4190b6295f1c5c3f6, type: 3}
    - {fileID: 21300000, guid: d994cdf30c161b7499ef054813b4e4e9, type: 3}
    - {fileID: 21300000, guid: d8a7ea821800310409a791109cff942e, type: 3}
    - {fileID: 21300000, guid: d994cdf30c161b7499ef054813b4e4e9, type: 3}
    - {fileID: 21300000, guid: 0a96721380f41eb4190b6295f1c5c3f6, type: 3}
  m_AnimationClipSettings:
    serializedVersion: 2
    m_StartTime: 0
    m_StopTime: .672222257
    m_OrientationOffsetY: 0
    m_Level: 0
    m_CycleOffset: 0
    m_LoopTime: 1
    m_LoopBlend: 0
    m_LoopBlendOrientation: 0
    m_LoopBlendPositionY: 0
    m_LoopBlendPositionXZ: 0
    m_KeepOriginalOrientation: 0
    m_KeepOriginalPositionY: 1
    m_KeepOriginalPositionXZ: 0
    m_HeightFromFeet: 0
    m_Mirror: 0
  m_EditorCurves:
  - curve:
      serializedVersion: 2
      m_Curve:
      - time: 0
        value: 0
        inSlope: 0
        outSlope: 0
        tangentMode: 10
      - time: .5
        value: 0
        inSlope: 0
        outSlope: 0
        tangentMode: 10
      m_PreInfinity: 2
      m_PostInfinity: 2
    attribute: m_LocalPosition.x
    path: 
    classID: 4
    script: {fileID: 0}
  - curve:
      serializedVersion: 2
      m_Curve:
      - time: 0
        value: .829999983
        inSlope: 0
        outSlope: 0
        tangentMode: 10
      - time: .5
        value: .829999983
        inSlope: 0
        outSlope: 0
        tangentMode: 10
      m_PreInfinity: 2
      m_PostInfinity: 2
    attribute: m_LocalPosition.y
    path: 
    classID: 4
    script: {fileID: 0}
  - curve:
      serializedVersion: 2
      m_Curve:
      - time: 0
        value: 0
        inSlope: 0
        outSlope: 0
        tangentMode: 10
      - time: .5
        value: 0
        inSlope: 0
        outSlope: 0
        tangentMode: 10
      m_PreInfinity: 2
      m_PostInfinity: 2
    attribute: m_LocalPosition.z
    path: 
    classID: 4
    script: {fileID: 0}
  - curve:
      serializedVersion: 2
      m_Curve:
      - time: 0
        value: 0
        inSlope: 0
        outSlope: 0
        tangentMode: 0
      - time: .00555555569
        value: 0
        inSlope: 0
        outSlope: 0
        tangentMode: 0
      - time: .0111111114
        value: 0
        inSlope: 0
        outSlope: 0
        tangentMode: 0
      - time: .0166666675
        value: 0
        inSlope: 0
        outSlope: 0
        tangentMode: 0
      - time: .0222222228
        value: 0
        inSlope: 0
        outSlope: 0
        tangentMode: 0
      - time: .027777778
        value: 0
        inSlope: 0
        outSlope: 0
        tangentMode: 0
      - time: .0333333351
        value: 0
        inSlope: 0
        outSlope: 0
        tangentMode: 0
      - time: .0388888903
        value: 0
        inSlope: 0
        outSlope: 0
        tangentMode: 0
      - time: .0444444455
        value: 0
        inSlope: 0
        outSlope: 0
        tangentMode: 0
      - time: .0500000007
        value: 0
        inSlope: 0
        outSlope: 0
        tangentMode: 0
      - time: .055555556
        value: 0
        inSlope: 0
        outSlope: 0
        tangentMode: 0
      - time: .0611111112
        value: 0
        inSlope: 0
        outSlope: 0
        tangentMode: 0
      - time: .0666666701
        value: 0
        inSlope: 0
        outSlope: 0
        tangentMode: 0
      - time: .0722222254
        value: 0
        inSlope: 0
        outSlope: 0
        tangentMode: 0
      - time: .0777777806
        value: 0
        inSlope: 0
        outSlope: 0
        tangentMode: 0
      - time: .0833333358
        value: 0
        inSlope: 0
        outSlope: 0
        tangentMode: 0
      - time: .088888891
        value: 0
        inSlope: 0
        outSlope: 0
        tangentMode: 0
      - time: .0944444463
        value: 0
        inSlope: 0
        outSlope: 0
        tangentMode: 0
      - time: .100000001
        value: 0
        inSlope: 0
        outSlope: 0
        tangentMode: 0
      - time: .105555557
        value: 0
        inSlope: 0
        outSlope: 0
        tangentMode: 0
      - time: .111111112
        value: 0
        inSlope: 0
        outSlope: 0
        tangentMode: 0
      - time: .116666667
        value: 0
        inSlope: 0
        outSlope: 0
        tangentMode: 0
      - time: .122222222
        value: 0
        inSlope: 0
        outSlope: 0
        tangentMode: 0
      - time: .127777785
        value: 0
        inSlope: 0
        outSlope: 0
        tangentMode: 0
      - time: .13333334
        value: 0
        inSlope: 0
        outSlope: 0
        tangentMode: 0
      - time: .138888896
        value: 0
        inSlope: 0
        outSlope: 0
        tangentMode: 0
      - time: .144444451
        value: 0
        inSlope: 0
        outSlope: 0
        tangentMode: 0
      - time: .150000006
        value: 0
        inSlope: 0
        outSlope: 0
        tangentMode: 0
      - time: .155555561
        value: 0
        inSlope: 0
        outSlope: 0
        tangentMode: 0
      - time: .161111116
        value: 0
        inSlope: 0
        outSlope: 0
        tangentMode: 0
      - time: .166666672
        value: 0
        inSlope: 0
        outSlope: 0
        tangentMode: 0
      - time: .172222227
        value: 0
        inSlope: 0
        outSlope: 0
        tangentMode: 0
      - time: .177777782
        value: 0
        inSlope: 0
        outSlope: 0
        tangentMode: 0
      - time: .183333337
        value: 0
        inSlope: 0
        outSlope: 0
        tangentMode: 0
      - time: .188888893
        value: 0
        inSlope: 0
        outSlope: 0
        tangentMode: 0
      - time: .194444448
        value: 0
        inSlope: 0
        outSlope: 0
        tangentMode: 0
      - time: .200000003
        value: 0
        inSlope: 0
        outSlope: 0
        tangentMode: 0
      - time: .205555558
        value: 0
        inSlope: 0
        outSlope: 0
        tangentMode: 0
      - time: .211111113
        value: 0
        inSlope: 0
        outSlope: 0
        tangentMode: 0
      - time: .216666669
        value: 0
        inSlope: 0
        outSlope: 0
        tangentMode: 0
      - time: .222222224
        value: 0
        inSlope: 0
        outSlope: 0
        tangentMode: 0
      - time: .227777779
        value: 0
        inSlope: 0
        outSlope: 0
        tangentMode: 0
      - time: .233333334
        value: 0
        inSlope: 0
        outSlope: 0
        tangentMode: 0
      - time: .23888889
        value: 0
        inSlope: 0
        outSlope: 0
        tangentMode: 0
      - time: .244444445
        value: 0
        inSlope: 0
        outSlope: 0
        tangentMode: 0
      - time: .25
        value: 0
        inSlope: 0
        outSlope: 0
        tangentMode: 0
      - time: .25555557
        value: 0
        inSlope: 0
        outSlope: 0
        tangentMode: 0
      - time: .26111114
        value: 0
        inSlope: 0
        outSlope: 0
        tangentMode: 0
      - time: .26666671
        value: 0
        inSlope: 0
        outSlope: 0
        tangentMode: 0
      - time: .272222281
        value: 0
        inSlope: 0
        outSlope: 0
        tangentMode: 0
      - time: .277777851
        value: 0
        inSlope: 0
        outSlope: 0
        tangentMode: 0
      - time: .283333421
        value: 0
        inSlope: 0
        outSlope: 0
        tangentMode: 0
      - time: .288888991
        value: 0
        inSlope: 0
        outSlope: 0
        tangentMode: 0
      - time: .294444561
        value: 0
        inSlope: 0
        outSlope: 0
        tangentMode: 0
      - time: .300000131
        value: 0
        inSlope: 0
        outSlope: 0
        tangentMode: 0
      - time: .305555701
        value: 0
        inSlope: 0
        outSlope: 0
        tangentMode: 0
      - time: .311111271
        value: 0
        inSlope: 0
        outSlope: 0
        tangentMode: 0
      - time: .316666842
        value: 0
        inSlope: 0
        outSlope: 0
        tangentMode: 0
      - time: .322222412
        value: 0
        inSlope: 0
        outSlope: 0
        tangentMode: 0
      - time: .327777982
        value: 0
        inSlope: 0
        outSlope: 0
        tangentMode: 0
      - time: .333333552
        value: 0
        inSlope: 0
        outSlope: 0
        tangentMode: 0
      - time: .338889122
        value: 0
        inSlope: 0
        outSlope: 0
        tangentMode: 0
      - time: .344444692
        value: 0
        inSlope: 0
        outSlope: 0
        tangentMode: 0
      - time: .350000262
        value: 0
        inSlope: 0
        outSlope: 0
        tangentMode: 0
      - time: .355555832
        value: 0
        inSlope: 0
        outSlope: 0
        tangentMode: 0
      - time: .361111403
        value: 0
        inSlope: 0
        outSlope: 0
        tangentMode: 0
      - time: .366666973
        value: 0
        inSlope: 0
        outSlope: 0
        tangentMode: 0
      - time: .372222543
        value: 0
        inSlope: 0
        outSlope: 0
        tangentMode: 0
      - time: .377778113
        value: 0
        inSlope: 0
        outSlope: 0
        tangentMode: 0
      - time: .383333683
        value: 0
        inSlope: 0
        outSlope: 0
        tangentMode: 0
      - time: .388889253
        value: 0
        inSlope: 0
        outSlope: 0
        tangentMode: 0
      - time: .394444823
        value: 0
        inSlope: 0
        outSlope: 0
        tangentMode: 0
      - time: .400000393
        value: 0
        inSlope: 0
        outSlope: 0
        tangentMode: 0
      - time: .405555964
        value: 0
        inSlope: 0
        outSlope: 0
        tangentMode: 0
      - time: .411111534
        value: 0
        inSlope: 0
        outSlope: 0
        tangentMode: 0
      - time: .416667104
        value: 0
        inSlope: 0
        outSlope: 0
        tangentMode: 0
      - time: .422222674
        value: 0
        inSlope: 0
        outSlope: 0
        tangentMode: 0
      - time: .427778244
        value: 0
        inSlope: 0
        outSlope: 0
        tangentMode: 0
      - time: .433333814
        value: 0
        inSlope: 0
        outSlope: 0
        tangentMode: 0
      - time: .438889384
        value: 0
        inSlope: 0
        outSlope: 0
        tangentMode: 0
      - time: .444444954
        value: 0
        inSlope: 0
        outSlope: 0
        tangentMode: 0
      - time: .450000525
        value: 0
        inSlope: 0
        outSlope: 0
        tangentMode: 0
      - time: .455556095
        value: 0
        inSlope: 0
        outSlope: 0
        tangentMode: 0
      - time: .461111665
        value: 0
        inSlope: 0
        outSlope: 0
        tangentMode: 0
      - time: .466667235
        value: 0
        inSlope: 0
        outSlope: 0
        tangentMode: 0
      - time: .472222805
        value: 0
        inSlope: 0
        outSlope: 0
        tangentMode: 0
      - time: .477778375
        value: 0
        inSlope: 0
        outSlope: 0
        tangentMode: 0
      - time: .483333945
        value: 0
        inSlope: 0
        outSlope: 0
        tangentMode: 0
      - time: .488889515
        value: 0
        inSlope: 0
        outSlope: 0
        tangentMode: 0
      - time: .494445086
        value: 0
        inSlope: 0
        outSlope: 0
        tangentMode: 0
      - time: .5
        value: 0
        inSlope: 0
        outSlope: 0
        tangentMode: 0
      m_PreInfinity: 2
      m_PostInfinity: 2
    attribute: m_LocalRotation.x
    path: 
    classID: 4
    script: {fileID: 0}
  - curve:
      serializedVersion: 2
      m_Curve:
      - time: 0
        value: 0
        inSlope: 0
        outSlope: 0
        tangentMode: 0
      - time: .00555555569
        value: 0
        inSlope: 0
        outSlope: 0
        tangentMode: 0
      - time: .0111111114
        value: 0
        inSlope: 0
        outSlope: 0
        tangentMode: 0
      - time: .0166666675
        value: 0
        inSlope: 0
        outSlope: 0
        tangentMode: 0
      - time: .0222222228
        value: 0
        inSlope: 0
        outSlope: 0
        tangentMode: 0
      - time: .027777778
        value: 0
        inSlope: 0
        outSlope: 0
        tangentMode: 0
      - time: .0333333351
        value: 0
        inSlope: 0
        outSlope: 0
        tangentMode: 0
      - time: .0388888903
        value: 0
        inSlope: 0
        outSlope: 0
        tangentMode: 0
      - time: .0444444455
        value: 0
        inSlope: 0
        outSlope: 0
        tangentMode: 0
      - time: .0500000007
        value: 0
        inSlope: 0
        outSlope: 0
        tangentMode: 0
      - time: .055555556
        value: 0
        inSlope: 0
        outSlope: 0
        tangentMode: 0
      - time: .0611111112
        value: 0
        inSlope: 0
        outSlope: 0
        tangentMode: 0
      - time: .0666666701
        value: 0
        inSlope: 0
        outSlope: 0
        tangentMode: 0
      - time: .0722222254
        value: 0
        inSlope: 0
        outSlope: 0
        tangentMode: 0
      - time: .0777777806
        value: 0
        inSlope: 0
        outSlope: 0
        tangentMode: 0
      - time: .0833333358
        value: 0
        inSlope: 0
        outSlope: 0
        tangentMode: 0
      - time: .088888891
        value: 0
        inSlope: 0
        outSlope: 0
        tangentMode: 0
      - time: .0944444463
        value: 0
        inSlope: 0
        outSlope: 0
        tangentMode: 0
      - time: .100000001
        value: 0
        inSlope: 0
        outSlope: 0
        tangentMode: 0
      - time: .105555557
        value: 0
        inSlope: 0
        outSlope: 0
        tangentMode: 0
      - time: .111111112
        value: 0
        inSlope: 0
        outSlope: 0
        tangentMode: 0
      - time: .116666667
        value: 0
        inSlope: 0
        outSlope: 0
        tangentMode: 0
      - time: .122222222
        value: 0
        inSlope: 0
        outSlope: 0
        tangentMode: 0
      - time: .127777785
        value: 0
        inSlope: 0
        outSlope: 0
        tangentMode: 0
      - time: .13333334
        value: 0
        inSlope: 0
        outSlope: 0
        tangentMode: 0
      - time: .138888896
        value: 0
        inSlope: 0
        outSlope: 0
        tangentMode: 0
      - time: .144444451
        value: 0
        inSlope: 0
        outSlope: 0
        tangentMode: 0
      - time: .150000006
        value: 0
        inSlope: 0
        outSlope: 0
        tangentMode: 0
      - time: .155555561
        value: 0
        inSlope: 0
        outSlope: 0
        tangentMode: 0
      - time: .161111116
        value: 0
        inSlope: 0
        outSlope: 0
        tangentMode: 0
      - time: .166666672
        value: 0
        inSlope: 0
        outSlope: 0
        tangentMode: 0
      - time: .172222227
        value: 0
        inSlope: 0
        outSlope: 0
        tangentMode: 0
      - time: .177777782
        value: 0
        inSlope: 0
        outSlope: 0
        tangentMode: 0
      - time: .183333337
        value: 0
        inSlope: 0
        outSlope: 0
        tangentMode: 0
      - time: .188888893
        value: 0
        inSlope: 0
        outSlope: 0
        tangentMode: 0
      - time: .194444448
        value: 0
        inSlope: 0
        outSlope: 0
        tangentMode: 0
      - time: .200000003
        value: 0
        inSlope: 0
        outSlope: 0
        tangentMode: 0
      - time: .205555558
        value: 0
        inSlope: 0
        outSlope: 0
        tangentMode: 0
      - time: .211111113
        value: 0
        inSlope: 0
        outSlope: 0
        tangentMode: 0
      - time: .216666669
        value: 0
        inSlope: 0
        outSlope: 0
        tangentMode: 0
      - time: .222222224
        value: 0
        inSlope: 0
        outSlope: 0
        tangentMode: 0
      - time: .227777779
        value: 0
        inSlope: 0
        outSlope: 0
        tangentMode: 0
      - time: .233333334
        value: 0
        inSlope: 0
        outSlope: 0
        tangentMode: 0
      - time: .23888889
        value: 0
        inSlope: 0
        outSlope: 0
        tangentMode: 0
      - time: .244444445
        value: 0
        inSlope: 0
        outSlope: 0
        tangentMode: 0
      - time: .25
        value: 0
        inSlope: 0
        outSlope: 0
        tangentMode: 0
      - time: .25555557
        value: 0
        inSlope: 0
        outSlope: 0
        tangentMode: 0
      - time: .26111114
        value: 0
        inSlope: 0
        outSlope: 0
        tangentMode: 0
      - time: .26666671
        value: 0
        inSlope: 0
        outSlope: 0
        tangentMode: 0
      - time: .272222281
        value: 0
        inSlope: 0
        outSlope: 0
        tangentMode: 0
      - time: .277777851
        value: 0
        inSlope: 0
        outSlope: 0
        tangentMode: 0
      - time: .283333421
        value: 0
        inSlope: 0
        outSlope: 0
        tangentMode: 0
      - time: .288888991
        value: 0
        inSlope: 0
        outSlope: 0
        tangentMode: 0
      - time: .294444561
        value: 0
        inSlope: 0
        outSlope: 0
        tangentMode: 0
      - time: .300000131
        value: 0
        inSlope: 0
        outSlope: 0
        tangentMode: 0
      - time: .305555701
        value: 0
        inSlope: 0
        outSlope: 0
        tangentMode: 0
      - time: .311111271
        value: 0
        inSlope: 0
        outSlope: 0
        tangentMode: 0
      - time: .316666842
        value: 0
        inSlope: 0
        outSlope: 0
        tangentMode: 0
      - time: .322222412
        value: 0
        inSlope: 0
        outSlope: 0
        tangentMode: 0
      - time: .327777982
        value: 0
        inSlope: 0
        outSlope: 0
        tangentMode: 0
      - time: .333333552
        value: 0
        inSlope: 0
        outSlope: 0
        tangentMode: 0
      - time: .338889122
        value: 0
        inSlope: 0
        outSlope: 0
        tangentMode: 0
      - time: .344444692
        value: 0
        inSlope: 0
        outSlope: 0
        tangentMode: 0
      - time: .350000262
        value: 0
        inSlope: 0
        outSlope: 0
        tangentMode: 0
      - time: .355555832
        value: 0
        inSlope: 0
        outSlope: 0
        tangentMode: 0
      - time: .361111403
        value: 0
        inSlope: 0
        outSlope: 0
        tangentMode: 0
      - time: .366666973
        value: 0
        inSlope: 0
        outSlope: 0
        tangentMode: 0
      - time: .372222543
        value: 0
        inSlope: 0
        outSlope: 0
        tangentMode: 0
      - time: .377778113
        value: 0
        inSlope: 0
        outSlope: 0
        tangentMode: 0
      - time: .383333683
        value: 0
        inSlope: 0
        outSlope: 0
        tangentMode: 0
      - time: .388889253
        value: 0
        inSlope: 0
        outSlope: 0
        tangentMode: 0
      - time: .394444823
        value: 0
        inSlope: 0
        outSlope: 0
        tangentMode: 0
      - time: .400000393
        value: 0
        inSlope: 0
        outSlope: 0
        tangentMode: 0
      - time: .405555964
        value: 0
        inSlope: 0
        outSlope: 0
        tangentMode: 0
      - time: .411111534
        value: 0
        inSlope: 0
        outSlope: 0
        tangentMode: 0
      - time: .416667104
        value: 0
        inSlope: 0
        outSlope: 0
        tangentMode: 0
      - time: .422222674
        value: 0
        inSlope: 0
        outSlope: 0
        tangentMode: 0
      - time: .427778244
        value: 0
        inSlope: 0
        outSlope: 0
        tangentMode: 0
      - time: .433333814
        value: 0
        inSlope: 0
        outSlope: 0
        tangentMode: 0
      - time: .438889384
        value: 0
        inSlope: 0
        outSlope: 0
        tangentMode: 0
      - time: .444444954
        value: 0
        inSlope: 0
        outSlope: 0
        tangentMode: 0
      - time: .450000525
        value: 0
        inSlope: 0
        outSlope: 0
        tangentMode: 0
      - time: .455556095
        value: 0
        inSlope: 0
        outSlope: 0
        tangentMode: 0
      - time: .461111665
        value: 0
        inSlope: 0
        outSlope: 0
        tangentMode: 0
      - time: .466667235
        value: 0
        inSlope: 0
        outSlope: 0
        tangentMode: 0
      - time: .472222805
        value: 0
        inSlope: 0
        outSlope: 0
        tangentMode: 0
      - time: .477778375
        value: 0
        inSlope: 0
        outSlope: 0
        tangentMode: 0
      - time: .483333945
        value: 0
        inSlope: 0
        outSlope: 0
        tangentMode: 0
      - time: .488889515
        value: 0
        inSlope: 0
        outSlope: 0
        tangentMode: 0
      - time: .494445086
        value: 0
        inSlope: 0
        outSlope: 0
        tangentMode: 0
      - time: .5
        value: 0
        inSlope: 0
        outSlope: 0
        tangentMode: 0
      m_PreInfinity: 2
      m_PostInfinity: 2
    attribute: m_LocalRotation.y
    path: 
    classID: 4
    script: {fileID: 0}
  - curve:
      serializedVersion: 2
      m_Curve:
      - time: 0
        value: 0
        inSlope: 0
        outSlope: 0
        tangentMode: 0
      - time: .00555555569
        value: 0
        inSlope: 0
        outSlope: 0
        tangentMode: 0
      - time: .0111111114
        value: 0
        inSlope: 0
        outSlope: 0
        tangentMode: 0
      - time: .0166666675
        value: 0
        inSlope: 0
        outSlope: 0
        tangentMode: 0
      - time: .0222222228
        value: 0
        inSlope: 0
        outSlope: 0
        tangentMode: 0
      - time: .027777778
        value: 0
        inSlope: 0
        outSlope: 0
        tangentMode: 0
      - time: .0333333351
        value: 0
        inSlope: 0
        outSlope: 0
        tangentMode: 0
      - time: .0388888903
        value: 0
        inSlope: 0
        outSlope: 0
        tangentMode: 0
      - time: .0444444455
        value: 0
        inSlope: 0
        outSlope: 0
        tangentMode: 0
      - time: .0500000007
        value: 0
        inSlope: 0
        outSlope: 0
        tangentMode: 0
      - time: .055555556
        value: 0
        inSlope: 0
        outSlope: 0
        tangentMode: 0
      - time: .0611111112
        value: 0
        inSlope: 0
        outSlope: 0
        tangentMode: 0
      - time: .0666666701
        value: 0
        inSlope: 0
        outSlope: 0
        tangentMode: 0
      - time: .0722222254
        value: 0
        inSlope: 0
        outSlope: 0
        tangentMode: 0
      - time: .0777777806
        value: 0
        inSlope: 0
        outSlope: 0
        tangentMode: 0
      - time: .0833333358
        value: 0
        inSlope: 0
        outSlope: 0
        tangentMode: 0
      - time: .088888891
        value: 0
        inSlope: 0
        outSlope: 0
        tangentMode: 0
      - time: .0944444463
        value: 0
        inSlope: 0
        outSlope: 0
        tangentMode: 0
      - time: .100000001
        value: 0
        inSlope: 0
        outSlope: 0
        tangentMode: 0
      - time: .105555557
        value: 0
        inSlope: 0
        outSlope: 0
        tangentMode: 0
      - time: .111111112
        value: 0
        inSlope: 0
        outSlope: 0
        tangentMode: 0
      - time: .116666667
        value: 0
        inSlope: 0
        outSlope: 0
        tangentMode: 0
      - time: .122222222
        value: 0
        inSlope: 0
        outSlope: 0
        tangentMode: 0
      - time: .127777785
        value: 0
        inSlope: 0
        outSlope: 0
        tangentMode: 0
      - time: .13333334
        value: 0
        inSlope: 0
        outSlope: 0
        tangentMode: 0
      - time: .138888896
        value: 0
        inSlope: 0
        outSlope: 0
        tangentMode: 0
      - time: .144444451
        value: 0
        inSlope: 0
        outSlope: 0
        tangentMode: 0
      - time: .150000006
        value: 0
        inSlope: 0
        outSlope: 0
        tangentMode: 0
      - time: .155555561
        value: 0
        inSlope: 0
        outSlope: 0
        tangentMode: 0
      - time: .161111116
        value: 0
        inSlope: 0
        outSlope: 0
        tangentMode: 0
      - time: .166666672
        value: 0
        inSlope: 0
        outSlope: 0
        tangentMode: 0
      - time: .172222227
        value: 0
        inSlope: 0
        outSlope: 0
        tangentMode: 0
      - time: .177777782
        value: 0
        inSlope: 0
        outSlope: 0
        tangentMode: 0
      - time: .183333337
        value: 0
        inSlope: 0
        outSlope: 0
        tangentMode: 0
      - time: .188888893
        value: 0
        inSlope: 0
        outSlope: 0
        tangentMode: 0
      - time: .194444448
        value: 0
        inSlope: 0
        outSlope: 0
        tangentMode: 0
      - time: .200000003
        value: 0
        inSlope: 0
        outSlope: 0
        tangentMode: 0
      - time: .205555558
        value: 0
        inSlope: 0
        outSlope: 0
        tangentMode: 0
      - time: .211111113
        value: 0
        inSlope: 0
        outSlope: 0
        tangentMode: 0
      - time: .216666669
        value: 0
        inSlope: 0
        outSlope: 0
        tangentMode: 0
      - time: .222222224
        value: 0
        inSlope: 0
        outSlope: 0
        tangentMode: 0
      - time: .227777779
        value: 0
        inSlope: 0
        outSlope: 0
        tangentMode: 0
      - time: .233333334
        value: 0
        inSlope: 0
        outSlope: 0
        tangentMode: 0
      - time: .23888889
        value: 0
        inSlope: 0
        outSlope: 0
        tangentMode: 0
      - time: .244444445
        value: 0
        inSlope: 0
        outSlope: 0
        tangentMode: 0
      - time: .25
        value: 0
        inSlope: 0
        outSlope: 0
        tangentMode: 0
      - time: .25555557
        value: 0
        inSlope: 0
        outSlope: 0
        tangentMode: 0
      - time: .26111114
        value: 0
        inSlope: 0
        outSlope: 0
        tangentMode: 0
      - time: .26666671
        value: 0
        inSlope: 0
        outSlope: 0
        tangentMode: 0
      - time: .272222281
        value: 0
        inSlope: 0
        outSlope: 0
        tangentMode: 0
      - time: .277777851
        value: 0
        inSlope: 0
        outSlope: 0
        tangentMode: 0
      - time: .283333421
        value: 0
        inSlope: 0
        outSlope: 0
        tangentMode: 0
      - time: .288888991
        value: 0
        inSlope: 0
        outSlope: 0
        tangentMode: 0
      - time: .294444561
        value: 0
        inSlope: 0
        outSlope: 0
        tangentMode: 0
      - time: .300000131
        value: 0
        inSlope: 0
        outSlope: 0
        tangentMode: 0
      - time: .305555701
        value: 0
        inSlope: 0
        outSlope: 0
        tangentMode: 0
      - time: .311111271
        value: 0
        inSlope: 0
        outSlope: 0
        tangentMode: 0
      - time: .316666842
        value: 0
        inSlope: 0
        outSlope: 0
        tangentMode: 0
      - time: .322222412
        value: 0
        inSlope: 0
        outSlope: 0
        tangentMode: 0
      - time: .327777982
        value: 0
        inSlope: 0
        outSlope: 0
        tangentMode: 0
      - time: .333333552
        value: 0
        inSlope: 0
        outSlope: 0
        tangentMode: 0
      - time: .338889122
        value: 0
        inSlope: 0
        outSlope: 0
        tangentMode: 0
      - time: .344444692
        value: 0
        inSlope: 0
        outSlope: 0
        tangentMode: 0
      - time: .350000262
        value: 0
        inSlope: 0
        outSlope: 0
        tangentMode: 0
      - time: .355555832
        value: 0
        inSlope: 0
        outSlope: 0
        tangentMode: 0
      - time: .361111403
        value: 0
        inSlope: 0
        outSlope: 0
        tangentMode: 0
      - time: .366666973
        value: 0
        inSlope: 0
        outSlope: 0
        tangentMode: 0
      - time: .372222543
        value: 0
        inSlope: 0
        outSlope: 0
        tangentMode: 0
      - time: .377778113
        value: 0
        inSlope: 0
        outSlope: 0
        tangentMode: 0
      - time: .383333683
        value: 0
        inSlope: 0
        outSlope: 0
        tangentMode: 0
      - time: .388889253
        value: 0
        inSlope: 0
        outSlope: 0
        tangentMode: 0
      - time: .394444823
        value: 0
        inSlope: 0
        outSlope: 0
        tangentMode: 0
      - time: .400000393
        value: 0
        inSlope: 0
        outSlope: 0
        tangentMode: 0
      - time: .405555964
        value: 0
        inSlope: 0
        outSlope: 0
        tangentMode: 0
      - time: .411111534
        value: 0
        inSlope: 0
        outSlope: 0
        tangentMode: 0
      - time: .416667104
        value: 0
        inSlope: 0
        outSlope: 0
        tangentMode: 0
      - time: .422222674
        value: 0
        inSlope: 0
        outSlope: 0
        tangentMode: 0
      - time: .427778244
        value: 0
        inSlope: 0
        outSlope: 0
        tangentMode: 0
      - time: .433333814
        value: 0
        inSlope: 0
        outSlope: 0
        tangentMode: 0
      - time: .438889384
        value: 0
        inSlope: 0
        outSlope: 0
        tangentMode: 0
      - time: .444444954
        value: 0
        inSlope: 0
        outSlope: 0
        tangentMode: 0
      - time: .450000525
        value: 0
        inSlope: 0
        outSlope: 0
        tangentMode: 0
      - time: .455556095
        value: 0
        inSlope: 0
        outSlope: 0
        tangentMode: 0
      - time: .461111665
        value: 0
        inSlope: 0
        outSlope: 0
        tangentMode: 0
      - time: .466667235
        value: 0
        inSlope: 0
        outSlope: 0
        tangentMode: 0
      - time: .472222805
        value: 0
        inSlope: 0
        outSlope: 0
        tangentMode: 0
      - time: .477778375
        value: 0
        inSlope: 0
        outSlope: 0
        tangentMode: 0
      - time: .483333945
        value: 0
        inSlope: 0
        outSlope: 0
        tangentMode: 0
      - time: .488889515
        value: 0
        inSlope: 0
        outSlope: 0
        tangentMode: 0
      - time: .494445086
        value: 0
        inSlope: 0
        outSlope: 0
        tangentMode: 0
      - time: .5
        value: 0
        inSlope: 0
        outSlope: 0
        tangentMode: 0
      m_PreInfinity: 2
      m_PostInfinity: 2
    attribute: m_LocalRotation.z
    path: 
    classID: 4
    script: {fileID: 0}
  - curve:
      serializedVersion: 2
      m_Curve:
      - time: 0
        value: 1
        inSlope: 0
        outSlope: 0
        tangentMode: 0
      - time: .00555555569
        value: 1
        inSlope: 0
        outSlope: 0
        tangentMode: 0
      - time: .0111111114
        value: 1
        inSlope: 0
        outSlope: 0
        tangentMode: 0
      - time: .0166666675
        value: 1
        inSlope: 0
        outSlope: 0
        tangentMode: 0
      - time: .0222222228
        value: 1
        inSlope: 0
        outSlope: 0
        tangentMode: 0
      - time: .027777778
        value: 1
        inSlope: 0
        outSlope: 0
        tangentMode: 0
      - time: .0333333351
        value: 1
        inSlope: 0
        outSlope: 0
        tangentMode: 0
      - time: .0388888903
        value: 1
        inSlope: 0
        outSlope: 0
        tangentMode: 0
      - time: .0444444455
        value: 1
        inSlope: 0
        outSlope: 0
        tangentMode: 0
      - time: .0500000007
        value: 1
        inSlope: 0
        outSlope: 0
        tangentMode: 0
      - time: .055555556
        value: 1
        inSlope: 0
        outSlope: 0
        tangentMode: 0
      - time: .0611111112
        value: 1
        inSlope: 0
        outSlope: 0
        tangentMode: 0
      - time: .0666666701
        value: 1
        inSlope: 0
        outSlope: 0
        tangentMode: 0
      - time: .0722222254
        value: 1
        inSlope: 0
        outSlope: 0
        tangentMode: 0
      - time: .0777777806
        value: 1
        inSlope: 0
        outSlope: 0
        tangentMode: 0
      - time: .0833333358
        value: 1
        inSlope: 0
        outSlope: 0
        tangentMode: 0
      - time: .088888891
        value: 1
        inSlope: 0
        outSlope: 0
        tangentMode: 0
      - time: .0944444463
        value: 1
        inSlope: 0
        outSlope: 0
        tangentMode: 0
      - time: .100000001
        value: 1
        inSlope: 0
        outSlope: 0
        tangentMode: 0
      - time: .105555557
        value: 1
        inSlope: 0
        outSlope: 0
        tangentMode: 0
      - time: .111111112
        value: 1
        inSlope: 0
        outSlope: 0
        tangentMode: 0
      - time: .116666667
        value: 1
        inSlope: 0
        outSlope: 0
        tangentMode: 0
      - time: .122222222
        value: 1
        inSlope: 0
        outSlope: 0
        tangentMode: 0
      - time: .127777785
        value: 1
        inSlope: 0
        outSlope: 0
        tangentMode: 0
      - time: .13333334
        value: 1
        inSlope: 0
        outSlope: 0
        tangentMode: 0
      - time: .138888896
        value: 1
        inSlope: 0
        outSlope: 0
        tangentMode: 0
      - time: .144444451
        value: 1
        inSlope: 0
        outSlope: 0
        tangentMode: 0
      - time: .150000006
        value: 1
        inSlope: 0
        outSlope: 0
        tangentMode: 0
      - time: .155555561
        value: 1
        inSlope: 0
        outSlope: 0
        tangentMode: 0
      - time: .161111116
        value: 1
        inSlope: 0
        outSlope: 0
        tangentMode: 0
      - time: .166666672
        value: 1
        inSlope: 0
        outSlope: 0
        tangentMode: 0
      - time: .172222227
        value: 1
        inSlope: 0
        outSlope: 0
        tangentMode: 0
      - time: .177777782
        value: 1
        inSlope: 0
        outSlope: 0
        tangentMode: 0
      - time: .183333337
        value: 1
        inSlope: 0
        outSlope: 0
        tangentMode: 0
      - time: .188888893
        value: 1
        inSlope: 0
        outSlope: 0
        tangentMode: 0
      - time: .194444448
        value: 1
        inSlope: 0
        outSlope: 0
        tangentMode: 0
      - time: .200000003
        value: 1
        inSlope: 0
        outSlope: 0
        tangentMode: 0
      - time: .205555558
        value: 1
        inSlope: 0
        outSlope: 0
        tangentMode: 0
      - time: .211111113
        value: 1
        inSlope: 0
        outSlope: 0
        tangentMode: 0
      - time: .216666669
        value: 1
        inSlope: 0
        outSlope: 0
        tangentMode: 0
      - time: .222222224
        value: 1
        inSlope: 0
        outSlope: 0
        tangentMode: 0
      - time: .227777779
        value: 1
        inSlope: 0
        outSlope: 0
        tangentMode: 0
      - time: .233333334
        value: 1
        inSlope: 0
        outSlope: 0
        tangentMode: 0
      - time: .23888889
        value: 1
        inSlope: 0
        outSlope: 0
        tangentMode: 0
      - time: .244444445
        value: 1
        inSlope: 0
        outSlope: 0
        tangentMode: 0
      - time: .25
        value: 1
        inSlope: 0
        outSlope: 0
        tangentMode: 0
      - time: .25555557
        value: 1
        inSlope: 0
        outSlope: 0
        tangentMode: 0
      - time: .26111114
        value: 1
        inSlope: 0
        outSlope: 0
        tangentMode: 0
      - time: .26666671
        value: 1
        inSlope: 0
        outSlope: 0
        tangentMode: 0
      - time: .272222281
        value: 1
        inSlope: 0
        outSlope: 0
        tangentMode: 0
      - time: .277777851
        value: 1
        inSlope: 0
        outSlope: 0
        tangentMode: 0
      - time: .283333421
        value: 1
        inSlope: 0
        outSlope: 0
        tangentMode: 0
      - time: .288888991
        value: 1
        inSlope: 0
        outSlope: 0
        tangentMode: 0
      - time: .294444561
        value: 1
        inSlope: 0
        outSlope: 0
        tangentMode: 0
      - time: .300000131
        value: 1
        inSlope: 0
        outSlope: 0
        tangentMode: 0
      - time: .305555701
        value: 1
        inSlope: 0
        outSlope: 0
        tangentMode: 0
      - time: .311111271
        value: 1
        inSlope: 0
        outSlope: 0
        tangentMode: 0
      - time: .316666842
        value: 1
        inSlope: 0
        outSlope: 0
        tangentMode: 0
      - time: .322222412
        value: 1
        inSlope: 0
        outSlope: 0
        tangentMode: 0
      - time: .327777982
        value: 1
        inSlope: 0
        outSlope: 0
        tangentMode: 0
      - time: .333333552
        value: 1
        inSlope: 0
        outSlope: 0
        tangentMode: 0
      - time: .338889122
        value: 1
        inSlope: 0
        outSlope: 0
        tangentMode: 0
      - time: .344444692
        value: 1
        inSlope: 0
        outSlope: 0
        tangentMode: 0
      - time: .350000262
        value: 1
        inSlope: 0
        outSlope: 0
        tangentMode: 0
      - time: .355555832
        value: 1
        inSlope: 0
        outSlope: 0
        tangentMode: 0
      - time: .361111403
        value: 1
        inSlope: 0
        outSlope: 0
        tangentMode: 0
      - time: .366666973
        value: 1
        inSlope: 0
        outSlope: 0
        tangentMode: 0
      - time: .372222543
        value: 1
        inSlope: 0
        outSlope: 0
        tangentMode: 0
      - time: .377778113
        value: 1
        inSlope: 0
        outSlope: 0
        tangentMode: 0
      - time: .383333683
        value: 1
        inSlope: 0
        outSlope: 0
        tangentMode: 0
      - time: .388889253
        value: 1
        inSlope: 0
        outSlope: 0
        tangentMode: 0
      - time: .394444823
        value: 1
        inSlope: 0
        outSlope: 0
        tangentMode: 0
      - time: .400000393
        value: 1
        inSlope: 0
        outSlope: 0
        tangentMode: 0
      - time: .405555964
        value: 1
        inSlope: 0
        outSlope: 0
        tangentMode: 0
      - time: .411111534
        value: 1
        inSlope: 0
        outSlope: 0
        tangentMode: 0
      - time: .416667104
        value: 1
        inSlope: 0
        outSlope: 0
        tangentMode: 0
      - time: .422222674
        value: 1
        inSlope: 0
        outSlope: 0
        tangentMode: 0
      - time: .427778244
        value: 1
        inSlope: 0
        outSlope: 0
        tangentMode: 0
      - time: .433333814
        value: 1
        inSlope: 0
        outSlope: 0
        tangentMode: 0
      - time: .438889384
        value: 1
        inSlope: 0
        outSlope: 0
        tangentMode: 0
      - time: .444444954
        value: 1
        inSlope: 0
        outSlope: 0
        tangentMode: 0
      - time: .450000525
        value: 1
        inSlope: 0
        outSlope: 0
        tangentMode: 0
      - time: .455556095
        value: 1
        inSlope: 0
        outSlope: 0
        tangentMode: 0
      - time: .461111665
        value: 1
        inSlope: 0
        outSlope: 0
        tangentMode: 0
      - time: .466667235
        value: 1
        inSlope: 0
        outSlope: 0
        tangentMode: 0
      - time: .472222805
        value: 1
        inSlope: 0
        outSlope: 0
        tangentMode: 0
      - time: .477778375
        value: 1
        inSlope: 0
        outSlope: 0
        tangentMode: 0
      - time: .483333945
        value: 1
        inSlope: 0
        outSlope: 0
        tangentMode: 0
      - time: .488889515
        value: 1
        inSlope: 0
        outSlope: 0
        tangentMode: 0
      - time: .494445086
        value: 1
        inSlope: 0
        outSlope: 0
        tangentMode: 0
      - time: .5
        value: 1
        inSlope: 0
        outSlope: 0
        tangentMode: 0
      m_PreInfinity: 2
      m_PostInfinity: 2
    attribute: m_LocalRotation.w
    path: 
    classID: 4
    script: {fileID: 0}
  - curve:
      serializedVersion: 2
      m_Curve:
      - time: 0
        value: 1
        inSlope: 0
        outSlope: 0
        tangentMode: 10
      - time: .5
        value: 1
        inSlope: 0
        outSlope: 0
        tangentMode: 10
      m_PreInfinity: 2
      m_PostInfinity: 2
    attribute: m_LocalScale.x
    path: 
    classID: 4
    script: {fileID: 0}
  - curve:
      serializedVersion: 2
      m_Curve:
      - time: 0
        value: 1
        inSlope: 0
        outSlope: 0
        tangentMode: 10
      - time: .5
        value: 1
        inSlope: 0
        outSlope: 0
        tangentMode: 10
      m_PreInfinity: 2
      m_PostInfinity: 2
    attribute: m_LocalScale.y
    path: 
    classID: 4
    script: {fileID: 0}
  - curve:
      serializedVersion: 2
      m_Curve:
      - time: 0
        value: 1
        inSlope: 0
        outSlope: 0
        tangentMode: 10
      - time: .5
        value: 1
        inSlope: 0
        outSlope: 0
        tangentMode: 10
      m_PreInfinity: 2
      m_PostInfinity: 2
    attribute: m_LocalScale.z
    path: 
    classID: 4
    script: {fileID: 0}
  m_EulerEditorCurves:
  - curve:
      serializedVersion: 2
      m_Curve:
      - time: 0
        value: 0
        inSlope: 0
        outSlope: 0
        tangentMode: 10
      - time: .5
        value: 0
        inSlope: 0
        outSlope: 0
        tangentMode: 10
      m_PreInfinity: 2
      m_PostInfinity: 2
    attribute: localEulerAnglesBaked.x
    path: 
    classID: 4
    script: {fileID: 0}
  - curve:
      serializedVersion: 2
      m_Curve:
      - time: 0
        value: 0
        inSlope: 0
        outSlope: 0
        tangentMode: 10
      - time: .5
        value: 0
        inSlope: 0
        outSlope: 0
        tangentMode: 10
      m_PreInfinity: 2
      m_PostInfinity: 2
    attribute: localEulerAnglesBaked.y
    path: 
    classID: 4
    script: {fileID: 0}
  - curve:
      serializedVersion: 2
      m_Curve:
      - time: 0
        value: 0
        inSlope: 0
        outSlope: 0
        tangentMode: 10
      - time: .5
        value: 0
        inSlope: 0
        outSlope: 0
        tangentMode: 10
      m_PreInfinity: 2
      m_PostInfinity: 2
    attribute: localEulerAnglesBaked.z
    path: 
    classID: 4
    script: {fileID: 0}
  m_Events: []
